Singapore Tourism Recovery Visual Analytics CDA – Singapore Tourism Recovery VA Prototype
…
excel_sheets("../data/raw/tourism_four_part_analysis_ready.xlsx")

[1] "analysis_ready_all"

Data Cleaning

data_clean <- tour %>%
  filter(!year %in% c(2016, 2026))

data_clean %>% count(year, month)

# A tibble: 108 × 3
    year month     n
   <dbl> <dbl> <int>
 1  2017     1     1
 2  2017     2     1
 3  2017     3     1
 4  2017     4     1
 5  2017     5     1
 6  2017     6     1
 7  2017     7     1
 8  2017     8     1
 9  2017     9     1
10  2017    10     1
# ℹ 98 more rows
…
 hotel_occ_level_tertile hotel_occ_level_business dataset_split     
 Length:108              Length:108               Length:108        
 Class :character        Class :character         Class :character  
 Mode  :character        Mode  :character         Mode  :character  

data_clean$date <- as.Date(data_clean$date)

data_clean %>% count(year, month)

# A tibble: 108 × 3
    year month     n
   <dbl> <dbl> <int>
 1  2017     1     1
 2  2017     2     1
 3  2017     3     1
 4  2017     4     1
 5  2017     5     1
 6  2017     6     1
 7  2017     7     1
 8  2017     8     1
 9  2017     9     1
10  2017    10     1
# ℹ 98 more rows
…
