Singapore Tourism Recovery Visual Analytics EDA – Singapore Tourism Recovery VA Prototype
…
glimpse() is used for checking columns, rows and variable types for the data sheet

excel_sheets() is used for checking how many data sheet are in the excel workbook

excel_sheets("../data/raw/tourism_four_part_analysis_ready.xlsx")

[1] "analysis_ready_all"

Data Cleaning

We will now check on the the year from 2016 - 2026, to make sure that all years are a full year from Jan to Dec, and remove years that are not

tour %>% count(year, month)

# A tibble: 110 × 3
    year month     n
   <dbl> <dbl> <int>
 1  2016    12     1
 2  2017     1     1
 3  2017     2     1
 4  2017     3     1
 5  2017     4     1
 6  2017     5     1
 7  2017     6     1
 8  2017     7     1
 9  2017     8     1
10  2017     9     1
# ℹ 100 more rows

data_clean <- tour %>%
  filter(!year %in% c(2016, 2026))

data_clean %>% count(year, month)

# A tibble: 108 × 3
    year month     n
   <dbl> <dbl> <int>
 1  2017     1     1
 2  2017     2     1
 3  2017     3     1
 4  2017     4     1
 5  2017     5     1
 6  2017     6     1
 7  2017     7     1
 8  2017     8     1
 9  2017     9     1
10  2017    10     1
# ℹ 98 more rows
…
